name,country,tags,industries
Polymath Robotics,"San Francisco, CA, USA; Remote","Industrials, Manufacturing and Robotics","Robotics, Artifical Intelligence, Hard Tech, Machine Learning, Unmanned Vehicle"
Terrace,"Remote; Los Angeles, CA, USA",Financial Technology,"Crypto / Web3, Fintech, DeFi, SaaS"
Morf Health,"San Francisco, CA, USA; New York, NY, USA; Remote","Healthcare, Healthcare IT","Digital Health, Developer Tools, Health Tech, SaaS, Healthcare"
Materee,"Jakarta, Jakarta, Indonesia; Remote",B2B Software and Services,"Construction, B2B"
Ping,"Remote; Buenos Aires, CABA, Argentina",Financial Technology,"Crypto / Web3, Payments, Neobank"
Dev Tools,"San Francisco, CA, USA","B2B Software and Services, Productivity","Artifical Intelligence, Developer Tools, Productivity, B2B"
Guardian Bio,"Remote; Boston, MA, USA","Healthcare, Therapeutics","Biotech, Drug discovery, Oncology, Therapeutics, Healthcare"
Pivo Technology Inc,"Lagos, LA, Nigeria; Remote",Financial Technology,"Fintech, Neobank, Payments, B2B, Supply Chain"
Integrated Reasoning,"Remote; San Francisco, CA, USA; Kilauea, HI, USA","B2B Software and Services, Engineering, Product and Design","Developer Tools, Artifical Intelligence, Hardware, Hard Tech"
Coverage Cat,"Remote; New York, NY, USA","Financial Technology, Insurance","Insurance, Fintech"
AccessOwl,"Remote; Mountain View, CA, USA; Berlin, Berlin, Germany","B2B Software and Services, Infrastructure","B2B, SaaS, Compliance"
Intuned,"Kirkland, WA, USA; Remote","B2B Software and Services, Engineering, Product and Design","SaaS, B2B, Analytics, Enterprise"
Cone,"Remote; Hyderabad, Telangana, India","B2B Software and Services, Finance and Accounting","Fintech, B2B, SaaS"
Landeed,"Hyderabad, Telangana, India; Remote",Real Estate and Construction,"Fintech, Civic Tech, Documents, Proptech, Insurance"
Axle,"New York, NY, USA; Atlanta, GA, USA","Financial Technology, Insurance","API, Insurance, Fintech, B2B"
Kamion,"Istanbul, Istanbul, Turkey; Remote","B2B Software and Services, Supply Chain and Logistics","Transportation, B2B, Digital Freight Brokerage, Supply Chain"
Shelf,"Bengaluru, KA, India","Financial Technology, Banking and Exchange","Payments, Neobank, Fintech"
Be Golden,"Remote; San Francisco, CA, USA; Los Angeles, CA, USA","Healthcare, Consumer Health and Wellness","Digital Health, Machine Learning, Health Tech"
Kashin,"Lima, Callao Region, Peru; Remote","Financial Technology, Credit and Lending",Fintech
Velontra,"Cincinnati, OH, USA; Remote","Industrials, Aviation and Space","Commercial Space Launch, Hardware, Satellites, Drones, Space Exploration"
Vizzly,"Remote; London, England, United Kingdom of Great Britain and Northern Ireland","B2B Software and Services, Analytics","Analytics, B2B, SaaS, Developer Tools"
REVER,"Barcelona, CT, Spain; Remote","Financial Technology, Credit and Lending",""
AlgoTest,"Delhi, DL, India; Remote","Financial Technology, Asset Management","Investing, Consumer, No-code, Fintech"
Abridge,"Mumbai, MH, India","B2B Software and Services, Supply Chain and Logistics","Digital Freight Brokerage, B2B, Logistics, Supply Chain"
Knowtex,"San Francisco, CA, USA","Healthcare, Healthcare IT","Artifical Intelligence, B2B, Machine Learning, Health Tech, Productivity"
Taro,"Redwood City, CA, USA","Consumer, Content","Developer Tools, Education, Community, Video, Creator Economy"
MovingLake,"Remote; Mexico City, CDMX, Mexico","B2B Software and Services, Engineering, Product and Design","Analytics, API, Data Engineering, B2B, SaaS"
Slingshot,"Remote; San Francisco, CA, USA",Healthcare,"Assistive Tech, Consumer Health Services"
Uwi,"Makati, NCR, Philippines; Remote","Financial Technology, Credit and Lending","Real Estate, Fintech, Proptech"
Monterey AI,"Remote; San Francisco, CA, USA","B2B Software and Services, Engineering, Product and Design","B2B, Productivity, Artifical Intelligence, SaaS"
Lancey,"Remote; Toronto, ON, Canada",B2B Software and Services,"B2B, SaaS, Enterprise, Sales"
ReleviumBio,"Galway, County Galway, Ireland","Healthcare, Therapeutics","Drug discovery, Healthcare, Therapeutics, Medical Devices, Biotech"
Blockscope,"Toronto, ON, Canada","B2B Software and Services, Infrastructure","Crypto / Web3, SaaS, Developer Tools"
Moonshot,"London, England, United Kingdom of Great Britain and Northern Ireland","Financial Technology, Consumer Finance","Fintech, Investing, NFT, Sports Tech"
Entvin,"Bengaluru, KA, India","B2B Software and Services, Marketing","SaaS, B2B"
autone,"London, England, United Kingdom of Great Britain and Northern Ireland; Milan, Lombardy, Italy; Remote","B2B Software and Services, Retail","Retail, Consumer, Supply Chain, Sustainable Fashion"
Oneleet,"Amsterdam, NH, Netherlands; Remote","B2B Software and Services, Security","Artifical Intelligence, B2B, Compliance, Security, SaaS"
Krave Mart,"Sindh, Pakistan","Consumer, Food and Beverage","Delivery, E-commerce, Consumer, Grocery, Logistics"
Drahim 💰,"Riyadh, Riyadh Province, Saudi Arabia; Remote",Financial Technology,"Fintech, Investing, Analytics"
Almond,"Los Angeles, CA, USA; Remote","Healthcare, Consumer Health and Wellness","Consumer Health Services, Healthcare, Telehealth, Consumer, Femtech"
Levers,"Jeddah, Makkah Province, Saudi Arabia; Remote","B2B Software and Services, Finance and Accounting","Fintech, Enterprise, FinOps"
Polymer,"San Francisco, CA, USA","B2B Software and Services, Retail","E-commerce, SaaS, B2B, Enterprise"
Caddie,"Remote; Toronto, ON, Canada; Vancouver, BC, Canada","B2B Software and Services, Marketing","B2B, Enterprise, SaaS, Sales"
UpLink,"Remote; Palm Beach Gardens, FL, USA","B2B Software and Services, Productivity","B2B, Collaboration, Documents, Productivity, SaaS"
Momentu,"Cali, Valle del Cauca, Colombia; Remote","Healthcare, Consumer Health and Wellness","Mental Health Tech, Healthcare, B2B, SaaS, HR Tech"
Drip,"Remote; São Paulo, SP, Brazil","Financial Technology, Payments","Payments, Fintech, Consumer, B2B, Marketplace"
CoKitchen,"Lagos, LA, Nigeria; Remote","Consumer, Food and Beverage","Consumer, Delivery, Foodtech, Ghost Kitchens"
Hero,"Remote; Panama City, Panama, Panama","B2B Software and Services, Finance and Accounting","Fintech, SaaS"
Excheqr,Remote,"Financial Technology, Asset Management",""
HOMLI,"New York, NY, USA; Remote","Real Estate and Construction, Housing and Real Estate","Proptech, Real Estate, Machine Learning, Artifical Intelligence, Consumer"
Patika,"Remote; Nairobi, Nairobi County, Kenya","Financial Technology, Payments","Fintech, B2B, Neobank"
Relate,"Remote; San Francisco, CA, USA","B2B Software and Services, Sales","SaaS, Sales, B2B"
Relay,"Salt Lake City, UT, USA; Remote","Healthcare, Consumer Health and Wellness","Digital Health, Mental Health Tech, Consumer, Health Tech"
Lamin Labs,"Munich, BY, Germany; Remote","B2B Software and Services, Engineering, Product and Design","Biotech, Data Engineering, Machine Learning, Developer Tools, B2B"
Hiresure.ai,"Bengaluru, KA, India","B2B Software and Services, Human Resources","HR Tech, Human Resources, B2B, SaaS"
AiPrise,"Remote; Santa Clara, CA, USA",Financial Technology,"B2B, Compliance, Fintech, Identity, Regtech"
Allero,"Tel Aviv-Yafo, Tel Aviv District, Israel","B2B Software and Services, Engineering, Product and Design","Developer Tools, DevSecOps, B2B"
Blacktop Hoops by Vinci Games,"Remote; Berkeley, CA, USA","Consumer, Gaming",Gaming
Quindar,"Remote; Denver, CO, USA; Austin, TX, USA; Seattle, WA, USA; Washington, DC, USA","B2B Software and Services, Operations","Space Exploration, SaaS, B2B, Satellites"
Everyspace,"New York, NY, USA; Remote","B2B Software and Services, Human Resources","B2B, Remote Work, Community"
Kombo,"Berlin, Berlin, Germany",B2B Software and Services,"SaaS, B2B"
Rampay,"","Financial Technology, Payments","Crypto / Web3, Payments, SaaS, Fintech, DeFi"
Plutto,"Santiago, Santiago Metropolitan Region, Chile; Remote","B2B Software and Services, Infrastructure","B2B, SaaS, API"
Ruffo,"Remote; San Francisco, CA, USA","Real Estate and Construction, Housing and Real Estate","Documents, LegalTech, Proptech, Fintech"
Artemis,"San Francisco, CA, USA; Remote",B2B Software and Services,"Developer Tools, Productivity"
Feather,"Remote; Seattle, WA, USA","B2B Software and Services, Finance and Accounting","Fintech, Investing, B2B, HR Tech, Human Resources"
Ultimate Tournament,"Wilmington, DE, USA; Remote","Consumer, Gaming",Gaming
Fini,"Amsterdam, NH, Netherlands; Remote","B2B Software and Services, Engineering, Product and Design","Artifical Intelligence, B2B, Machine Learning, Robotic Process Automation, SaaS"
Metriport,"San Francisco, CA, USA","Healthcare, Consumer Health and Wellness","Artifical Intelligence, Mental Health Tech, Health Tech, Digital Health, Fitness"
Needl,"Seattle, WA, USA",B2B Software and Services,"Machine Learning, Productivity, SaaS, Enterprise"
iollo,"Remote; Palo Alto, CA, USA",Healthcare,"Consumer Health Services, Biotech, Health Tech, Machine Learning, Data Engineering"
Garage Mobility,"Accra, Greater Accra Region, Ghana","B2B Software and Services, Supply Chain and Logistics","Transportation, Auto Commerce, Marketplace"
Chowdeck,"Lagos, LA, Nigeria; Remote","Consumer, Food and Beverage","Delivery, Marketplace, Food Tech, Consumer"
Maya Labs,"Bengaluru, KA, India; Remote","B2B Software and Services, Productivity","Generative AI, Robotic Process Automation, Artifical Intelligence"
FlyCode,"New York, NY, USA; Tel Aviv-Yafo, Tel Aviv District, Israel; Remote","B2B Software and Services, Engineering, Product and Design","Developer Tools, Productivity, Collaboration, SaaS"
Pluralith,"New York, NY, USA; Vienna, Vienna, Austria; Remote","B2B Software and Services, Infrastructure","DevSecOps, SaaS, Developer Tools"
PreStacks,"Remote; College Park, MD, USA","B2B Software and Services, Infrastructure","Developer Tools, DevSecOps, SaaS, B2B"
Cambio,"Remote; Chicago, IL, USA","Financial Technology, Credit and Lending","Fintech, Consumer"
Payable,"Jakarta, Jakarta, Indonesia; Remote","B2B Software and Services, Finance and Accounting","Fintech, Payments"
Rampp.xyz,"Remote; Los Angeles, CA, USA",Consumer,"NFT, Crypto / Web3, Creator Economy"
Hedgehog,"Palo Alto, CA, USA","Industrials, Manufacturing and Robotics","Climate, Agriculture, Robotics, Food Tech, Artifical Intelligence"
Coris,"San Francisco, CA, USA; Remote","B2B Software and Services, Infrastructure","Banking as a Service, Payments, B2B, Fintech"
Bitstack,"Paris, Île-de-France, France; Remote",Financial Technology,"Crypto / Web3, Fintech"
Airhart Aeronautics,"Long Beach, CA, USA; Remote","Industrials, Aviation and Space","Airplanes, Hardware, Hard Tech, Robotics, Transportation"
Peoplebox,"San Francisco, CA, USA; Remote","B2B Software and Services, Human Resources","SaaS, B2B, Enterprise, HR Tech, Productivity"
Zoltar Labs,"Mountain View, CA, USA; New York, NY, USA; Remote",B2B Software and Services,"Crypto / Web3, Developer Tools, SaaS"
Nucleus,"San Francisco, CA, USA; Remote","B2B Software and Services, Infrastructure","Security, Developer Tools, SaaS, Kubernetes, DevSecOps"
Shipmates,"Makati, NCR, Philippines; Remote","B2B Software and Services, Supply Chain and Logistics",Logistics
Sytex,"Remote; Córdoba, Cordoba, Argentina","B2B Software and Services, Productivity",""
Provision,"Toronto, ON, Canada","B2B Software and Services, Infrastructure","Construction, Machine Learning, Documents, Productivity, NLP"
Pulppo,"Mexico City, CDMX, Mexico; Remote","Real Estate and Construction, Housing and Real Estate","Proptech, Real Estate"
Videobug,"Remote; Bengaluru, KA, India","B2B Software and Services, Infrastructure",Developer Tools
NewsCatcher,"Remote; Paris, Île-de-France, France","B2B Software and Services, Analytics","B2B, NLP, API, Analytics, Enterprise"
Typewise,"Zürich, ZH, Switzerland; Remote","B2B Software and Services, Productivity","Artifical Intelligence, API, B2B, Machine Learning, Productivity"
Tersho,"Jaipur, RJ, India",B2B Software and Services,"B2B, Artifical Intelligence, Machine Learning, SaaS, Productivity"
Ajourney,"Remote; Singapore, Singapore",B2B Software and Services,"B2B, SaaS, HR Tech"
BiggerPicture,"Remote; San Francisco, CA, USA",B2B Software and Services,"Supply Chain, Logistics, Warehouse Management Tech, Transportation"
Slauth.io,"Tel Aviv-Yafo, Tel Aviv District, Israel; Remote","B2B Software and Services, Security","Identity, DevSecOps, Security"
Chainsight,Remote,B2B Software and Services,"SaaS, Fintech, Artifical Intelligence, Identity, Crypto / Web3"
numi foods,"Potsdam, BB, Germany","Consumer, Food and Beverage","Biotech, Foodtech, Consumer, Synthetic Biology"
Aragorn AI,"Remote; Plano, TX, USA; Lewisville, TX, USA","B2B Software and Services, Human Resources","HR Tech, B2B, Enterprise, SaaS"
Payload CMS,"Grand Rapids, MI, USA; Remote","B2B Software and Services, Engineering, Product and Design","Developer Tools, API, Open Source"
Ten Lives,"San Francisco, CA, USA","Consumer, Food and Beverage","Consumer, Food Tech, Machine Learning, Biotech, Synthetic Biology"
Malama Health,"Stanford, CA, USA; Remote",Healthcare,"Health Tech, Healthcare, Analytics, Telemedicine"
Hello Cognition,"New York, NY, USA",Consumer,"Artifical Intelligence, Generative AI, Consumer"
Maverick Bioworks,"San Francisco, CA, USA; Remote","Healthcare, Industrial Bio","Biotech, Genomics"
Tank Payments,"Santa Barbara, CA, USA; Tempe, AZ, USA; Remote","Financial Technology, Banking and Exchange","Payments, Fintech, Neobank"
Apply Design,"Tel Aviv-Yafo, Tel Aviv District, Israel; Remote",Real Estate and Construction,"Real Estate, Computer Vision, Proptech, SaaS, Machine Learning"
Evoly,Remote,"Industrials, Energy",""
Rio,"Mexico City, CDMX, Mexico; Remote","Financial Technology, Payments","Fintech, Payments, DeFi, Crypto / Web3, NFT"
Supercool,Remote,"Consumer, Social",Crypto / Web3
Windmill,"Remote; Paris, Île-de-France, France","B2B Software and Services, Infrastructure","Developer Tools, SaaS"
Activepieces,"Remote; California City, CA, USA","B2B Software and Services, Infrastructure","Developer Tools, Data Engineering, API"
Seaflight Technologies,"Torrance, CA, USA; Remote","Industrials, Aviation and Space","Robotics, Hard Tech, Logistics, Airplanes, ClimateTech"
Raven,"Bengaluru, KA, India; Remote","B2B Software and Services, Engineering, Product and Design","Developer Tools, SaaS"
Cashboard,"Remote; New York, NY, USA; Seattle, WA, USA","B2B Software and Services, Finance and Accounting",""
CodeCrafters,"Remote; San Francisco, CA, USA; London, England, United Kingdom of Great Britain and Northern Ireland; Singapore, Singapore","B2B Software and Services, Engineering, Product and Design","Developer Tools, Education, B2B, Enterprise, Consumer"
Overwatch,"New York, NY, USA; Boston, MA, USA; Atlanta, GA, USA; Remote","B2B Software and Services, Security","SaaS, Supply Chain, Artifical Intelligence"
ALT TEX,"Toronto, ON, Canada","Industrials, Climate","Bioplastic, Carbon Capture and Removal, Food Tech, Climate, Biotech"
Disclo,"Remote; Austin, TX, USA","B2B Software and Services, Human Resources","HR Tech, Human Resources, Compliance"
Tranch,"London, England, United Kingdom of Great Britain and Northern Ireland; Remote","Financial Technology, Credit and Lending","Fintech, SaaS"
Deekard,"Berlin, Berlin, Germany","B2B Software and Services, Analytics","Data Engineering, B2B, SaaS, Analytics, Developer Tools"
Sunlight,"Tel Aviv-Yafo, Tel Aviv District, Israel; Remote",Financial Technology,"B2B, Creator Economy, Fintech, API"
Novig,"New York, NY, USA; Remote","Consumer, Gaming","Gaming, Sports Tech, Marketplace"
NFT Access,"Remote; New York, NY, USA",Consumer,"Crypto / Web3, NFT"
Delegasi,"Bandung, West Java, Indonesia; Remote","B2B Software and Services, Finance and Accounting","SaaS, Fintech, B2B"
Signatur Biosciences,"Remote; San Francisco, CA, USA; New York, NY, USA; London, England, United Kingdom of Great Britain and Northern Ireland","Healthcare, Diagnostics","Diagnostics, Biotech, B2B, Machine Learning, Healthcare"
NuMind,"Remote; Cambridge, MA, USA","B2B Software and Services, Engineering, Product and Design","Machine Learning, Artifical Intelligence, AIOps, Developer Tools, Deep Learning"
EthosX,"Remote; Bengaluru, KA, India; Mumbai, MH, India; Claymont, DE, USA","Financial Technology, Banking and Exchange","Crypto / Web3, DeFi, DAO, Fintech"
Boostly,"Orem, UT, USA","B2B Software and Services, Marketing","B2B, SaaS, Foodtech, Food Tech"
Pilot AI,"Remote; San Francisco, CA, USA; San Juan, San Juan, Puerto Rico","B2B Software and Services, Sales","B2B, SaaS"
BlueHill Payments,"Remote; San Francisco, CA, USA","Financial Technology, Payments","Payments, B2B, Fintech, SaaS, Analytics"
Craze,"MH, India","Consumer, Gaming","Fintech, Consumer, Social, Gaming, Community"
RootFi,"Bengaluru, KA, India","Financial Technology, Credit and Lending","SaaS, Fintech, Banking as a Service"
Fetii,"Austin, TX, USA; Remote","Consumer, Transportation Services","Transportation, SaaS, Climate, Consumer, B2B"
Array Labs,"San Francisco, CA, USA; Sunnyvale, CA, USA","Industrials, Aviation and Space","Satellites, Hard Tech, Hardware"
Dr. Treat,"Remote; San Francisco, CA, USA","Healthcare, Healthcare Services","Digital Health, Telehealth, Consumer"
Serinus Biosciences,"New York, NY, USA; Remote","Healthcare, Therapeutics","Biotech, AI-powered Drug Discovery, Health Tech, Healthcare"
trebu,"Remote; Mexico City, CDMX, Mexico",Financial Technology,"Fintech, API, B2B"
Paigo,"San Francisco, CA, USA; Remote","B2B Software and Services, Finance and Accounting","SaaS, Enterprise, Fintech"
Moneco,Remote,"Financial Technology, Banking and Exchange","Neobank, Fintech"
ilumadata,"Remote; London, England, United Kingdom of Great Britain and Northern Ireland","B2B Software and Services, Analytics","Analytics, Data Engineering, Developer Tools, B2B, Enterprise"
Kapstar,"Remote; Blumenau, SC, Brazil","Financial Technology, Payments","Payments, Fintech, Crypto / Web3"
Coupl,"Bengaluru, KA, India; Remote","Financial Technology, Banking and Exchange","Fintech, Consumer, Neobank"
Openline,"Remote; London, England, United Kingdom of Great Britain and Northern Ireland",B2B Software and Services,"Enterprise, B2B, No-code"
Openpod,"San Francisco, CA, USA","B2B Software and Services, Engineering, Product and Design","Crypto / Web3, Open Source"
TrueBiz,"Remote; New York, NY, USA","B2B Software and Services, Operations","B2B, Fintech, Neobank, Identity, Regtech"
Alterya,"Tel Aviv-Yafo, Tel Aviv District, Israel; Remote",Financial Technology,"Crypto / Web3, Fintech, API, Analytics, SaaS"
Cerrion,"Zürich, ZH, Switzerland",Industrials,"Artifical Intelligence, B2B, Computer Vision, Manufacturing, SaaS"
Blitz,"Paris, Île-de-France, France; Remote","B2B Software and Services, Operations","No-code, SaaS, B2B"
erad,"Riyadh, Riyadh Province, Saudi Arabia; Remote",Financial Technology,""
Ruleset,"Sunnyvale, CA, USA; Remote","B2B Software and Services, Operations","Fintech, B2B, Data Engineering, No-code, SaaS"
Pasito,"Remote; New York, NY, USA","B2B Software and Services, Human Resources","B2B, Human Resources, Healthcare, SaaS, Health Insurance"
Bunting Labs,"San Francisco, CA, USA","B2B Software and Services, Supply Chain and Logistics","Marketplace, Warehouse Management Tech, Manufacturing, B2B, SaaS"
Devyce,"London, England, United Kingdom of Great Britain and Northern Ireland; Remote","B2B Software and Services, Operations","B2B, SaaS, Messaging"
Tailor,"Tokyo, Tokyo, Japan; Remote",B2B Software and Services,"API, B2B, SaaS, Developer Tools, Enterprise"
Internet Friends,Remote,Consumer,"Crypto / Web3, Consumer"
Chariot,"New York, NY, USA","Financial Technology, Payments","Nonprofit, Payments, B2B, API, Fintech"
Levo Financial,"Remote; Salt Lake City, UT, USA","Financial Technology, Consumer Finance","Consumer, Fintech"
Stackup,"Remote; Los Angeles, CA, USA","Financial Technology, Consumer Finance",""
Two Dots,"New York, NY, USA",B2B Software and Services,"Artifical Intelligence, B2B, Fintech, Proptech"
Bend,"Remote; New York, NY, USA","B2B Software and Services, Finance and Accounting","ClimateTech, Fintech, Climate, Supply Chain"
PayO,"Bengaluru, KA, India; Remote","B2B Software and Services, Finance and Accounting","Fintech, Neobank, Payments, SaaS, B2B"
Immuna,"San Francisco, CA, USA; Remote","Financial Technology, Asset Management","DeFi, B2B, SaaS, Crypto / Web3"
Derisk,"Remote; Seattle, WA, USA; Palo Alto, CA, USA","B2B Software and Services, Security","Crypto / Web3, Security, B2B"
Sherlok,"Remote; San Francisco, CA, USA","B2B Software and Services, Infrastructure","Developer Tools, Data Engineering, SaaS, Analytics, B2B"
Birch Biosciences,"Portland, OR, USA; Remote","Industrials, Climate","Biotech, Climate, Machine Learning, Synthetic Biology"
Ciro,"San Francisco, CA, USA; Remote","B2B Software and Services, Sales","B2B, SaaS, Sales"
Sematic,"San Francisco, CA, USA; Remote","B2B Software and Services, Infrastructure","Machine Learning, AIOps, Developer Tools, SaaS"
Probably Nothing Labs,"San Francisco, CA, USA","B2B Software and Services, Infrastructure","Crypto / Web3, Data Engineering, SaaS"
Paces,"New York, NY, USA","Industrials, Climate","Climate, Machine Learning, Proptech, Energy"
Stream,"New York, NY, USA","Financial Technology, Insurance","Insurance, Fintech, B2B, SaaS"
Chordio,"Remote; Issaquah, WA, USA","B2B Software and Services, Engineering, Product and Design","SaaS, B2B"
Weltio,"Remote; Mexico City, CDMX, Mexico",Financial Technology,"Investing, Retail, Fintech, Crypto / Web3"
DeploySentinel,"Foster City, CA, USA","B2B Software and Services, Engineering, Product and Design","Developer Tools, B2B, SaaS"
Wolfia,"Mountain View, CA, USA","B2B Software and Services, Engineering, Product and Design","B2B, SaaS, Developer Tools"
Banabo,"San Francisco, CA, USA","B2B Software and Services, Marketing","B2B, SaaS, Analytics"
Cisterna Biologics,"San Diego, CA, USA",Healthcare,"Biotech, Nanotechnology, Therapeutics"
Clinikally,"Gurugram, HR, India; Palo Alto, CA, USA; Remote","Healthcare, Consumer Health and Wellness","Consumer Health Services, Digital Health, Telehealth, E-commerce"
Coinbooks,"Remote; San Francisco, CA, USA","B2B Software and Services, Finance and Accounting","Crypto / Web3, Fintech"
Albiware Inc.,"Downers Grove, IL, USA; Remote","Real Estate and Construction, Construction","Construction, Proptech"
Pana,"Remote; Winter Garden, FL, USA","Financial Technology, Banking and Exchange","Consumer, Social, Fintech, Conversational Banking, Neobank"
EUGIT Therapeutics,"San Carlos, CA, USA","Healthcare, Therapeutics","Therapeutics, Biotech, Oncology, Drug discovery, Healthcare"
Medplum,"Remote; San Francisco, CA, USA","B2B Software and Services, Engineering, Product and Design","Open Source, Developer Tools, Healthcare, SaaS, Enterprise"
SilkChart,"Remote; San Francisco, CA, USA","B2B Software and Services, Analytics","SaaS, Analytics, B2B, E-commerce, Consumer"
Keylika,"Walnut Creek, CA, USA; Remote","Healthcare, Therapeutics","Nanotechnology, Biotech, Therapeutics, Drug discovery"
Emerge Career,"Remote; New York, NY, USA; New Haven, CT, USA",Education,"Education, GovTech"
